{
    "author" : "Pochi Chen",
    "log": [
        {
            "date" : "2020-05-01",
            "content": "準備教材"
        },
        {
            "date" : "2020-04-21",
            "content": "撰寫測試程式"           
        }
    ]
}